…
we want to build a model predicting whether a customer opened a
promotional email Read the data:

``` r
data <- read_csv("P12-Email-Offer.csv")
```

We have a sample of a 100 customers, and for each of them age, gender
and whether they opned the email

``` r
print(data)
```

    ## # A tibble: 100 x 3
    ##      Age Gender TookAction
    ##    <dbl> <chr>       <dbl>
    ##  1    38 Female          0
    ##  2    32 Female          0
    ##  3    46 Male            1
    ##  4    34 Male            0
    ##  5    40 Male            0
    ##  6    37 Female          0
    ##  7    43 Male            1
    ##  8    38 Male            1
    ##  9    27 Male            0
    ## 10    42 Female          0
    ## # ... with 90 more rows
…
